C:\Users\DenisaRadu\Documents\BullyingApplication\src\main\java\work\web\error\ReCaptchaInvalidException.java
C:\Users\DenisaRadu\Documents\BullyingApplication\src\main\java\work\security\ActiveUserStore.java
C:\Users\DenisaRadu\Documents\BullyingApplication\src\main\java\work\spring\PersistenceJPAConfig.java
C:\Users\DenisaRadu\Documents\BullyingApplication\src\main\java\work\web\controller\RegistrationCaptchaController.java
C:\Users\DenisaRadu\Documents\BullyingApplication\src\main\java\work\persistence\dao\DeviceMetadataRepository.java
C:\Users\DenisaRadu\Documents\BullyingApplication\src\main\java\work\persistence\model\User.java
C:\Users\DenisaRadu\Documents\BullyingApplication\src\main\java\work\spring\LoginNotificationConfig.java
C:\Users\DenisaRadu\Documents\BullyingApplication\src\main\java\work\dto\TextExercisesListDTO.java
C:\Users\DenisaRadu\Documents\BullyingApplication\src\main\java\work\persistence\model\WorkProgress.java
C:\Users\DenisaRadu\Documents\BullyingApplication\src\main\java\work\security\AuthenticationFailureListener.java
C:\Users\DenisaRadu\Documents\BullyingApplication\src\main\java\work\validation\UserValidator.java
C:\Users\DenisaRadu\Documents\BullyingApplication\src\main\java\work\persistence\model\TextExercises.java
C:\Users\DenisaRadu\Documents\BullyingApplication\src\main\java\work\spring\SecSecurityConfig.java
C:\Users\DenisaRadu\Documents\BullyingApplication\src\main\java\work\web\controller\ChatController.java
C:\Users\DenisaRadu\Documents\BullyingApplication\src\main\java\work\spring\MvcConfig.java
C:\Users\DenisaRadu\Documents\BullyingApplication\src\main\java\work\persistence\model\DeviceMetadata.java
C:\Users\DenisaRadu\Documents\BullyingApplication\src\main\java\work\persistence\model\VerificationToken.java
C:\Users\DenisaRadu\Documents\BullyingApplication\src\main\java\work\registration\OnRegistrationCompleteEvent.java
C:\Users\DenisaRadu\Documents\BullyingApplication\src\main\java\work\captcha\ICaptchaService.java
C:\Users\DenisaRadu\Documents\BullyingApplication\src\main\java\work\persistence\model\TableExercises.java
C:\Users\DenisaRadu\Documents\BullyingApplication\src\main\java\work\web\controller\UserController.java
C:\Users\DenisaRadu\Documents\BullyingApplication\src\main\java\work\security\AuthenticationSuccessEventListener.java
C:\Users\DenisaRadu\Documents\BullyingApplication\src\main\java\work\persistence\dao\UserDAO.java
C:\Users\DenisaRadu\Documents\BullyingApplication\src\main\java\work\validation\ValidPassword.java
C:\Users\DenisaRadu\Documents\BullyingApplication\src\main\java\work\validation\PasswordConstraintValidator.java
C:\Users\DenisaRadu\Documents\BullyingApplication\src\main\java\work\persistence\model\ChatMessage.java
C:\Users\DenisaRadu\Documents\BullyingApplication\src\main\java\work\registration\listener\RegistrationListener.java
C:\Users\DenisaRadu\Documents\BullyingApplication\src\main\java\work\web\error\ReCaptchaUnavailableException.java
C:\Users\DenisaRadu\Documents\BullyingApplication\src\main\java\work\dto\TextExercisesDTO.java
C:\Users\DenisaRadu\Documents\BullyingApplication\src\main\java\work\validation\PasswordMatchesValidator.java
C:\Users\DenisaRadu\Documents\BullyingApplication\src\main\java\work\WsConfig.java
C:\Users\DenisaRadu\Documents\BullyingApplication\src\main\java\work\persistence\model\Role.java
C:\Users\DenisaRadu\Documents\BullyingApplication\src\main\java\work\security\google2fa\CustomAuthenticationProvider.java
C:\Users\DenisaRadu\Documents\BullyingApplication\src\main\java\work\persistence\dao\ITextExercisesRepository.java
C:\Users\DenisaRadu\Documents\BullyingApplication\src\main\java\work\security\google2fa\CustomWebAuthenticationDetailsSource.java
C:\Users\DenisaRadu\Documents\BullyingApplication\src\main\java\work\persistence\model\EmotionValue.java
C:\Users\DenisaRadu\Documents\BullyingApplication\src\main\java\work\web\controller\WorkProgressController.java
C:\Users\DenisaRadu\Documents\BullyingApplication\src\main\java\work\web\error\UserNotFoundException.java
C:\Users\DenisaRadu\Documents\BullyingApplication\src\main\java\work\persistence\dao\UserDAOImpl.java
C:\Users\DenisaRadu\Documents\BullyingApplication\src\main\java\work\captcha\CaptchaSettings.java
C:\Users\DenisaRadu\Documents\BullyingApplication\src\main\java\work\security\MyCustomLoginAuthenticationSuccessHandler.java
C:\Users\DenisaRadu\Documents\BullyingApplication\src\main\java\work\spring\ServiceConfig.java
C:\Users\DenisaRadu\Documents\BullyingApplication\src\main\java\work\persistence\dao\RoleRepository.java
C:\Users\DenisaRadu\Documents\BullyingApplication\src\main\java\work\security\LoginAttemptService.java
C:\Users\DenisaRadu\Documents\BullyingApplication\src\main\java\work\service\UserService.java
C:\Users\DenisaRadu\Documents\BullyingApplication\src\main\java\work\security\ISecurityUserService.java
C:\Users\DenisaRadu\Documents\BullyingApplication\src\main\java\work\persistence\dao\UserRepository.java
C:\Users\DenisaRadu\Documents\BullyingApplication\src\main\java\work\persistence\model\Privilege.java
C:\Users\DenisaRadu\Documents\BullyingApplication\src\main\java\work\dto\StepDTO.java
C:\Users\DenisaRadu\Documents\BullyingApplication\src\main\java\work\service\IUserService.java
C:\Users\DenisaRadu\Documents\BullyingApplication\src\main\java\work\web\controller\OldRegistrationController.java
C:\Users\DenisaRadu\Documents\BullyingApplication\src\main\java\work\web\controller\BaseController.java
C:\Users\DenisaRadu\Documents\BullyingApplication\src\main\java\work\web\util\GenericResponse.java
C:\Users\DenisaRadu\Documents\BullyingApplication\src\main\java\work\persistence\dao\PasswordResetTokenRepository.java
C:\Users\DenisaRadu\Documents\BullyingApplication\src\main\java\work\persistence\dao\PrivilegeRepository.java
C:\Users\DenisaRadu\Documents\BullyingApplication\src\main\java\work\security\MyLogoutSuccessHandler.java
C:\Users\DenisaRadu\Documents\BullyingApplication\src\main\java\work\Application.java
C:\Users\DenisaRadu\Documents\BullyingApplication\src\main\java\work\spring\SetupDataLoader.java
C:\Users\DenisaRadu\Documents\BullyingApplication\src\main\java\work\validation\EmailValidator.java
C:\Users\DenisaRadu\Documents\BullyingApplication\src\main\java\work\security\MySimpleUrlAuthenticationSuccessHandler.java
C:\Users\DenisaRadu\Documents\BullyingApplication\src\main\java\work\service\TextExercisesService.java
C:\Users\DenisaRadu\Documents\BullyingApplication\src\main\java\work\service\WorkProgressService.java
C:\Users\DenisaRadu\Documents\BullyingApplication\src\main\java\work\web\controller\TextExercisesController.java
C:\Users\DenisaRadu\Documents\BullyingApplication\src\main\java\work\web\error\UserAlreadyExistException.java
C:\Users\DenisaRadu\Documents\BullyingApplication\src\main\java\work\captcha\CaptchaService.java
C:\Users\DenisaRadu\Documents\BullyingApplication\src\main\java\work\security\google2fa\CustomWebAuthenticationDetails.java
C:\Users\DenisaRadu\Documents\BullyingApplication\src\main\java\work\web\dto\RegisterUserForm.java
C:\Users\DenisaRadu\Documents\BullyingApplication\src\main\java\work\security\CustomAuthenticationFailureHandler.java
C:\Users\DenisaRadu\Documents\BullyingApplication\src\main\java\work\security\MyUserDetailsService.java
C:\Users\DenisaRadu\Documents\BullyingApplication\src\main\java\work\spring\CaptchaConfig.java
C:\Users\DenisaRadu\Documents\BullyingApplication\src\main\java\work\spring\AppConfig.java
C:\Users\DenisaRadu\Documents\BullyingApplication\src\main\java\work\spring\SpringTaskConfig.java
C:\Users\DenisaRadu\Documents\BullyingApplication\src\main\java\work\web\error\InvalidOldPasswordException.java
C:\Users\DenisaRadu\Documents\BullyingApplication\src\main\java\work\web\error\RestResponseEntityExceptionHandler.java
C:\Users\DenisaRadu\Documents\BullyingApplication\src\main\java\work\service\DeviceService.java
C:\Users\DenisaRadu\Documents\BullyingApplication\src\main\java\work\security\CustomRememberMeServices.java
C:\Users\DenisaRadu\Documents\BullyingApplication\src\main\java\work\security\UserSecurityService.java
C:\Users\DenisaRadu\Documents\BullyingApplication\src\main\java\work\validation\EmailExistsException.java
C:\Users\DenisaRadu\Documents\BullyingApplication\src\main\java\work\validation\ValidEmail.java
C:\Users\DenisaRadu\Documents\BullyingApplication\src\main\java\work\web\dto\UserDto.java
C:\Users\DenisaRadu\Documents\BullyingApplication\src\main\java\work\persistence\model\PasswordResetToken.java
C:\Users\DenisaRadu\Documents\BullyingApplication\src\main\java\work\persistence\model\UserList.java
C:\Users\DenisaRadu\Documents\BullyingApplication\src\main\java\work\persistence\dao\WorkProgressRepository.java
C:\Users\DenisaRadu\Documents\BullyingApplication\src\main\java\work\web\controller\RegistrationController.java
C:\Users\DenisaRadu\Documents\BullyingApplication\src\main\java\work\persistence\dao\VerificationTokenRepository.java
C:\Users\DenisaRadu\Documents\BullyingApplication\src\main\java\work\persistence\dao\TextExercisesRepository.java
C:\Users\DenisaRadu\Documents\BullyingApplication\src\main\java\work\task\TokensPurgeTask.java
C:\Users\DenisaRadu\Documents\BullyingApplication\src\main\java\work\captcha\GoogleResponse.java
C:\Users\DenisaRadu\Documents\BullyingApplication\src\main\java\work\validation\PasswordMatches.java
C:\Users\DenisaRadu\Documents\BullyingApplication\src\main\java\work\web\dto\PasswordDto.java
C:\Users\DenisaRadu\Documents\BullyingApplication\src\main\java\work\captcha\ReCaptchaAttemptService.java
C:\Users\DenisaRadu\Documents\BullyingApplication\src\main\java\work\security\LoggedUser.java
