work\test\UserIntegrationTest.class
work\test\SpringSecurityRolesIntegrationTest.class
work\spring\TestTaskConfig.class
work\test\GetLoggedUsersIntegrationTest.class
work\test\RegistrationPasswordLiveTest.class
work\test\RegistrationControllerIntegrationTest.class
work\test\DeviceServiceIntegrationTest.class
work\test\IntegrationSuite.class
work\test\TokenExpirationIntegrationTest.class
work\test\UserServiceIntegrationTest.class
work\spring\ConfigTest.class
work\spring\TestIntegrationConfig.class
work\test\ChangePasswordIntegrationTest.class
work\spring\TestDbConfig.class
